﻿[
  {
    "outputFileName": "wwwroot/Content/bootstrap-switch/bootstrap3/Boot.css",
    "inputFiles": [
      "wwwroot/Content/bootstrap-switch/bootstrap3/bootstrap-switch.css",
      "wwwroot/Content/bootstrap.css",
      "wwwroot/Content/bootstrap-tagsinput.css"
    ]
  },
  {
    "outputFileName": "wwwroot/content/site.css",
    "inputFiles": [
      "wwwroot/content/site.css"
    ]
  },
  {
    "outputFileName": "wwwroot/Content/themes/base/UICSS.css",
    "inputFiles": [
      "wwwroot/Content/themes/base/jquery-ui.css",
      "wwwroot/Content/themes/base/jquery.ui.accordion.css",
      "wwwroot/Content/themes/base/jquery.ui.all.css",
      "wwwroot/Content/themes/base/jquery.ui.autocomplete.css",
      "wwwroot/Content/themes/base/jquery.ui.base.css",
      "wwwroot/Content/themes/base/jquery.ui.button.css",
      "wwwroot/Content/themes/base/jquery.ui.core.css",
      "wwwroot/Content/themes/base/jquery.ui.datepicker.css",
      "wwwroot/Content/themes/base/jquery.ui.dialog.css",
      "wwwroot/Content/themes/base/jquery.ui.menu.css",
      "wwwroot/Content/themes/base/jquery.ui.progressbar.css",
      "wwwroot/Content/themes/base/jquery.ui.resizable.css",
      "wwwroot/Content/themes/base/jquery.ui.selectable.css",
      "wwwroot/Content/themes/base/jquery.ui.slider.css",
      "wwwroot/Content/themes/base/jquery.ui.spinner.css",
      "wwwroot/Content/themes/base/jquery.ui.tabs.css",
      "wwwroot/Content/themes/base/jquery.ui.theme.css",
      "wwwroot/Content/themes/base/jquery.ui.tooltip.css"
    ]
  }
]
