D:\Creatis Project\Coding\branches\HomeBranch\CREATIS.WEB
--output-path=obj\Release\netcoreapp2.0\
--application-name=CREATIS.WEB
--content-root=D:\Creatis Project\Coding\branches\HomeBranch\CREATIS.WEB
--file=D:\Creatis Project\Coding\branches\HomeBranch\CREATIS.WEB\Views\AllowanceMaster\Index.cshtml
--file=D:\Creatis Project\Coding\branches\HomeBranch\CREATIS.WEB\Views\CustomerOverview\CustomerOverview.cshtml
--file=D:\Creatis Project\Coding\branches\HomeBranch\CREATIS.WEB\Views\Customer\Index.cshtml
--file=D:\Creatis Project\Coding\branches\HomeBranch\CREATIS.WEB\Views\Dashboard\Dashboard.cshtml
--file=D:\Creatis Project\Coding\branches\HomeBranch\CREATIS.WEB\Views\Dashboard\_CopyLayout.cshtml
--file=D:\Creatis Project\Coding\branches\HomeBranch\CREATIS.WEB\Views\DocumentTypeMaster\Index.cshtml
--file=D:\Creatis Project\Coding\branches\HomeBranch\CREATIS.WEB\Views\Home\Index.cshtml
--file=D:\Creatis Project\Coding\branches\HomeBranch\CREATIS.WEB\Views\InputMaster\Index.cshtml
--file=D:\Creatis Project\Coding\branches\HomeBranch\CREATIS.WEB\Views\LanguageMaster\Index.cshtml
--file=D:\Creatis Project\Coding\branches\HomeBranch\CREATIS.WEB\Views\OBCTypeMaster\Index.cshtml
--file=D:\Creatis Project\Coding\branches\HomeBranch\CREATIS.WEB\Views\PlanningMaster\Index.cshtml
--file=D:\Creatis Project\Coding\branches\HomeBranch\CREATIS.WEB\Views\PlanningSpecificationMaster\Index.cshtml
--file=D:\Creatis Project\Coding\branches\HomeBranch\CREATIS.WEB\Views\QuestionPath\QuestionPath.cshtml
--file=D:\Creatis Project\Coding\branches\HomeBranch\CREATIS.WEB\Views\QuestionPath\_CheckoffProperties.cshtml
--file=D:\Creatis Project\Coding\branches\HomeBranch\CREATIS.WEB\Views\QuestionPath\_CheckoffQuestionPath.cshtml
--file=D:\Creatis Project\Coding\branches\HomeBranch\CREATIS.WEB\Views\QuestionPath\_chioceProperties.cshtml
--file=D:\Creatis Project\Coding\branches\HomeBranch\CREATIS.WEB\Views\QuestionPath\_chioceQuestionPath.cshtml
--file=D:\Creatis Project\Coding\branches\HomeBranch\CREATIS.WEB\Views\QuestionPath\_ConditionalActionProperties.cshtml
--file=D:\Creatis Project\Coding\branches\HomeBranch\CREATIS.WEB\Views\QuestionPath\_ConditionalActionQuestionPath.cshtml
--file=D:\Creatis Project\Coding\branches\HomeBranch\CREATIS.WEB\Views\QuestionPath\_DiscriptionProperties.cshtml
--file=D:\Creatis Project\Coding\branches\HomeBranch\CREATIS.WEB\Views\QuestionPath\_DivQuestions.cshtml
--file=D:\Creatis Project\Coding\branches\HomeBranch\CREATIS.WEB\Views\QuestionPath\_DocumentScanner.cshtml
--file=D:\Creatis Project\Coding\branches\HomeBranch\CREATIS.WEB\Views\QuestionPath\_DocumetScanProperties.cshtml
--file=D:\Creatis Project\Coding\branches\HomeBranch\CREATIS.WEB\Views\QuestionPath\_DocumetScanQuestionPath.cshtml
--file=D:\Creatis Project\Coding\branches\HomeBranch\CREATIS.WEB\Views\QuestionPath\_EntryProperties.cshtml
--file=D:\Creatis Project\Coding\branches\HomeBranch\CREATIS.WEB\Views\QuestionPath\_EntryQuestionPath.cshtml
--file=D:\Creatis Project\Coding\branches\HomeBranch\CREATIS.WEB\Views\QuestionPath\_ExtraInfo.cshtml
--file=D:\Creatis Project\Coding\branches\HomeBranch\CREATIS.WEB\Views\QuestionPath\_FlexProperties.cshtml
--file=D:\Creatis Project\Coding\branches\HomeBranch\CREATIS.WEB\Views\QuestionPath\_InfomessageProperties.cshtml
--file=D:\Creatis Project\Coding\branches\HomeBranch\CREATIS.WEB\Views\QuestionPath\_InfomessageQuestionPath.cshtml
--file=D:\Creatis Project\Coding\branches\HomeBranch\CREATIS.WEB\Views\QuestionPath\_Pallets.cshtml
--file=D:\Creatis Project\Coding\branches\HomeBranch\CREATIS.WEB\Views\QuestionPath\_Picture.cshtml
--file=D:\Creatis Project\Coding\branches\HomeBranch\CREATIS.WEB\Views\QuestionPath\_PlanningSelectProperties.cshtml
--file=D:\Creatis Project\Coding\branches\HomeBranch\CREATIS.WEB\Views\QuestionPath\_PlanningSelectQuestionPath.cshtml
--file=D:\Creatis Project\Coding\branches\HomeBranch\CREATIS.WEB\Views\QuestionPath\_Problem.cshtml
--file=D:\Creatis Project\Coding\branches\HomeBranch\CREATIS.WEB\Views\QuestionPath\_SetactionProperties.cshtml
--file=D:\Creatis Project\Coding\branches\HomeBranch\CREATIS.WEB\Views\QuestionPath\_SetactionQuestionPath.cshtml
--file=D:\Creatis Project\Coding\branches\HomeBranch\CREATIS.WEB\Views\QuestionPath\_Signature.cshtml
--file=D:\Creatis Project\Coding\branches\HomeBranch\CREATIS.WEB\Views\QuestionPath\_SmartExtraInfo.cshtml
--file=D:\Creatis Project\Coding\branches\HomeBranch\CREATIS.WEB\Views\QuestionPath\_SmartPallets.cshtml
--file=D:\Creatis Project\Coding\branches\HomeBranch\CREATIS.WEB\Views\QuestionPath\_SmartPicture.cshtml
--file=D:\Creatis Project\Coding\branches\HomeBranch\CREATIS.WEB\Views\QuestionPath\_SmartProblem.cshtml
--file=D:\Creatis Project\Coding\branches\HomeBranch\CREATIS.WEB\Views\QuestionPath\_SmartSignature.cshtml
--file=D:\Creatis Project\Coding\branches\HomeBranch\CREATIS.WEB\Views\QuestionPath\_TextMessageProperties.cshtml
--file=D:\Creatis Project\Coding\branches\HomeBranch\CREATIS.WEB\Views\QuestionPath\_TextMessageQuestionPath.cshtml
--file=D:\Creatis Project\Coding\branches\HomeBranch\CREATIS.WEB\Views\QuestionPath\_TrailerProperties.cshtml
--file=D:\Creatis Project\Coding\branches\HomeBranch\CREATIS.WEB\Views\QuestionPath\_TrailerQuestionPath.cshtml
--file=D:\Creatis Project\Coding\branches\HomeBranch\CREATIS.WEB\Views\QuestionPath\_TransportTypesProperties.cshtml
--file=D:\Creatis Project\Coding\branches\HomeBranch\CREATIS.WEB\Views\QuestionPath\_TransportTypesQuestionPath.cshtml
--file=D:\Creatis Project\Coding\branches\HomeBranch\CREATIS.WEB\Views\QuestionPath\_VariableListProperties.cshtml
--file=D:\Creatis Project\Coding\branches\HomeBranch\CREATIS.WEB\Views\QuestionPath\_VariableListQuestionPath.cshtml
--file=D:\Creatis Project\Coding\branches\HomeBranch\CREATIS.WEB\Views\Roles\Index.cshtml
--file=D:\Creatis Project\Coding\branches\HomeBranch\CREATIS.WEB\Views\ScreenLayout\ScreenLayout.cshtml
--file=D:\Creatis Project\Coding\branches\HomeBranch\CREATIS.WEB\Views\Shared\DBConnectionError.cshtml
--file=D:\Creatis Project\Coding\branches\HomeBranch\CREATIS.WEB\Views\Shared\Error.cshtml
--file=D:\Creatis Project\Coding\branches\HomeBranch\CREATIS.WEB\Views\Shared\InternalServerError.cshtml
--file=D:\Creatis Project\Coding\branches\HomeBranch\CREATIS.WEB\Views\Shared\NetworkError.cshtml
--file=D:\Creatis Project\Coding\branches\HomeBranch\CREATIS.WEB\Views\Shared\SessionExpired.cshtml
--file=D:\Creatis Project\Coding\branches\HomeBranch\CREATIS.WEB\Views\Shared\Unauthorised.cshtml
--file=D:\Creatis Project\Coding\branches\HomeBranch\CREATIS.WEB\Views\Shared\_Layout.cshtml
--file=D:\Creatis Project\Coding\branches\HomeBranch\CREATIS.WEB\Views\ShowLayout\Index.cshtml
--file=D:\Creatis Project\Coding\branches\HomeBranch\CREATIS.WEB\Views\ShowLayout\ShowLayout.cshtml
--file=D:\Creatis Project\Coding\branches\HomeBranch\CREATIS.WEB\Views\Translator\Translation.cshtml
--file=D:\Creatis Project\Coding\branches\HomeBranch\CREATIS.WEB\Views\Translator\_AllowanceInput.cshtml
--file=D:\Creatis Project\Coding\branches\HomeBranch\CREATIS.WEB\Views\Translator\_ChoiceDetailInput.cshtml
--file=D:\Creatis Project\Coding\branches\HomeBranch\CREATIS.WEB\Views\Translator\_ChoiceInput.cshtml
--file=D:\Creatis Project\Coding\branches\HomeBranch\CREATIS.WEB\Views\Translator\_DocumentScanInput.cshtml
--file=D:\Creatis Project\Coding\branches\HomeBranch\CREATIS.WEB\Views\Translator\_EntryInput.cshtml
--file=D:\Creatis Project\Coding\branches\HomeBranch\CREATIS.WEB\Views\Translator\_ExportTranslationsInput.cshtml
--file=D:\Creatis Project\Coding\branches\HomeBranch\CREATIS.WEB\Views\Translator\_InfoColumnInput.cshtml
--file=D:\Creatis Project\Coding\branches\HomeBranch\CREATIS.WEB\Views\Translator\_InfoMessageContentInput.cshtml
--file=D:\Creatis Project\Coding\branches\HomeBranch\CREATIS.WEB\Views\Translator\_InfoMessageInput.cshtml
--file=D:\Creatis Project\Coding\branches\HomeBranch\CREATIS.WEB\Views\Translator\_LanguageSelectInput.cshtml
--file=D:\Creatis Project\Coding\branches\HomeBranch\CREATIS.WEB\Views\Translator\_PlanningSelectInput.cshtml
--file=D:\Creatis Project\Coding\branches\HomeBranch\CREATIS.WEB\Views\Translator\_TextMessageInput.cshtml
--file=D:\Creatis Project\Coding\branches\HomeBranch\CREATIS.WEB\Views\Translator\_TranslatorLanguageInput.cshtml
--file=D:\Creatis Project\Coding\branches\HomeBranch\CREATIS.WEB\Views\Translator\_VariableListInput.cshtml
--file=D:\Creatis Project\Coding\branches\HomeBranch\CREATIS.WEB\Views\UserEnvironment\Index.cshtml
--file=D:\Creatis Project\Coding\branches\HomeBranch\CREATIS.WEB\Views\Users\Index.cshtml
--file=D:\Creatis Project\Coding\branches\HomeBranch\CREATIS.WEB\Views\Users\_UserSelectInput.cshtml
--file=D:\Creatis Project\Coding\branches\HomeBranch\CREATIS.WEB\Views\WorkingCode\Index.cshtml
--file=D:\Creatis Project\Coding\branches\HomeBranch\CREATIS.WEB\Views\_ViewImports.cshtml
--file=D:\Creatis Project\Coding\branches\HomeBranch\CREATIS.WEB\Views\_ViewStart.cshtml
